challmaking/interiut2025/the_115200_ritual/dist/the_115200_ritual.vcd
$version Generated by Wokwi.com $end
$date Wed, 09 Apr 2025 08:11:04 GMT $end
$timescale 1ns $end
$scope module logic $end
$var wire 1 ! D0 $end
$upscope $end
$enddefinitions $end
#0
1!
#2554025
0!
#2559667
1!
#2565309
0!
#2570951
1!
#2576593
0!
#2587877
1!
#2599161
0!
#2604803
1!
#2610445
0!
#2627371
1!
#2633013
0!
#2638655
1!
#2655581
0!
#2661223
1!
#2666865
0!
#2672507
1!
#2683791
0!
#2695075
1!
#2712001
0!
#2717643
1!
#2723285
0!
#2757137
1!
#2762779
0!
#2774063
1!
#2779705
0!
#2790989
1!
#2796631
0!
#2802273
1!
#2807915
0!
#2819199
1!
#2824841
0!
#2830483
1!
#2836125
0!
#2841767
1!
#2847409
0!
#2853051
1!
#2858693
0!
#2864335
1!
#2881261
0!
#2886903
1!
#2892545
0!
#2909471
1!
#2920755
0!
#2926397
1!
#2937681
0!
#2943323
1!
#2948965
0!
#2982817
1!
#2988459
0!
#2999743
1!
#3005385
0!
#3016669
1!
#3022311
0!
#3033595
1!
#3044879
0!
#3056163
1!
#3061805
0!
#3067447
1!
#3073089
0!
#3084373
1!
#3101299
0!
#3112583
1!
#3118225
0!
#3152077
1!
#3157719
0!
#3169003
1!
#3174645
0!
#3185929
1!
#3191571
0!
#3202855
1!
#3214139
0!
#3225423
1!
#3231065
0!
#3259275
1!
#3270559
0!
#3281843
1!
#3287485
0!
#3293127
1!
#3298769
0!
#3315695
1!
#3326979
0!
#3338263
1!
#3343905
0!
#3349547
1!
#3355189
0!
#3366473
1!
#3383399
0!
#3394683
1!
#3400325
0!
#3434177
1!
#3439819
0!
#3451103
1!
#3456745
0!
#3462387
1!
#3468029
0!
#3484955
1!
#3496239
0!
#3507523
1!
#3513165
0!
#3524449
1!
#3530091
0!
#3541375
1!
#3552659
0!
#3563943
1!
#3569585
0!
#3580869
1!
#3586511
0!
#3592153
1!
#3609079
0!
#3620363
1!
#3626005
0!
#3637289
1!
#3642931
0!
#3654215
1!
#3665499
0!
#3676783
1!
#3682425
0!
#3688067
1!
#3693709
0!
#3710635
1!
#3721919
0!
#3733203
1!
#3738845
0!
#3750129
1!
#3755771
0!
#3761413
1!
#3778339
0!
#3789623
1!
#3795265
0!
#3812191
1!
#3817833
0!
#3823475
1!
#3834759
0!
#3846043
1!
#3851685
0!
#3862969
1!
#3874253
0!
#3879895
1!
#3891179
0!
#3902463
1!
#3908105
0!
#3913747
1!
#3919389
0!
#3925031
1!
#3936315
0!
#3958883
1!
#3964525
0!
#3975809
1!
#3981451
0!
#3987093
1!
#3992735
0!
#4015303
1!
#4020945
0!
#4026587
1!
#4032229
0!
#4037871
1!
#4049155
0!
#4071723
1!
#4077365
0!
#4088649
1!
#4094291
0!
#4099933
1!
#4105575
0!
#4128143
1!
#4133785
0!
#4145069
1!
#4150711
0!
#4161995
1!
#4178921
0!
#4184563
1!
#4190205
0!
#4195847
1!
#4207131
0!
#4218415
1!
#4235341
0!
#4240983
1!
#4246625
0!
#4263551
1!
#4269193
0!
#4274835
1!
#4291761
0!
#4297403
1!
#4303045
0!
#4314329
1!
#4319971
0!
#4325613
1!
#4342539
0!
#4353823
1!
#4359465
0!
#4387675
1!
#4398959
0!
#4410243
1!
#4415885
0!
#4438453
1!
#4461021
0!
#4466663
1!
#4472305
0!
#4477947
1!
#4483589
0!
#4500515
1!
#4511799
0!
#4523083
1!
#4528725
0!
#4562577
1!
#4568219
0!
#4579503
1!
#4585145
0!
#4607713
1!
#4613355
0!
#4618997
1!
#4624639
0!
#4635923
1!
#4641565
0!
#4669775
1!
#4675417
0!
#4681059
1!
#4686701
0!
#4692343
1!
#4697985
0!
#4703627
1!
#4726195
0!
#4737479
1!
#4743121
0!
#4748763
1!
#4754405
0!
#4760047
1!
#4776973
0!
#4782615
1!
#4788257
0!
#4793899
1!
#4799541
0!
#4805183
1!
#4810825
0!
#4816467
1!
#4822109
0!
#4827751
1!
#4833393
0!
#4850319
1!
#4855961
0!
#4861603
1!
#4867245
0!
#4878529
1!
#4884171
0!
#4895455
1!
#4901097
0!
#4906739
1!
#4912381
0!
#4918023
1!
#4923665
0!
#4929307
1!
#4951875
0!
#4963159
1!
#4968801
0!
#4974443
1!
#4980085
0!
#4991369
1!
#5008295
0!
#5019579
1!
#5025221
0!
#5030863
1!
#5036505
0!
#5042147
1!
#5070357
0!
#5075999
1!
#5081641
0!
#5087283
1!
#5092925
0!
#5104209
1!
#5109851
0!
#5121135
1!
#5126777
0!
#5132419
1!
#5138061
0!
#5143703
1!
#5149345
0!
#5154987
1!
#5160629
0!
#5166271
1!
#5171913
0!
#5188839
1!
#5194481
0!
#5200123
1!
#5205765
0!
#5211407
1!
#5222691
0!
#5233975
1!
#5239617
0!
#5245259
1!
#5250901
0!
#5256543
1!
#5262185
0!
#5267827
1!
#5273469
0!
#5279111
1!
#5284753
0!
#5301679
1!
#5307321
0!
#5312963
1!
#5318605
0!
#5335531
1!
#5341173
0!
#5346815
1!
#5352457
0!
#5358099
1!
#5363741
0!
#5369383
1!
#5375025
0!
#5380667
1!
#5386309
0!
#5397593
1!
#5403235
0!
#5408877
1!
#5414519
0!
#5425803
1!
#5431445
0!
#5448371
1!
#5459655
0!
#5465297
1!
#5470939
0!
#5482223
1!
#5487865
0!
#5499149
1!
#5504791
0!
#5521717
1!
#5533001
0!
#5538643
1!
#5544285
0!
#5549927
1!
#5572495
0!
#5578137
1!
#5589421
0!
#5595063
1!
#5600705
0!
#5606347
1!
#5628915
0!
#5634557
1!
#5645841
0!
#5651483
1!
#5657125
0!
#5674051
1!
#5679693
0!
#5685335
1!
#5702261
0!
#5707903
1!
#5713545
0!
#5724829
1!
#5730471
0!
#5736113
1!
#5753039
0!
#5764323
1!
#5769965
0!
#5798175
1!
#5809459
0!
#5820743
1!
#5826385
0!
#5848953
1!
#5871521
0!
#5877163
1!
#5882805
0!
#5888447
1!
#5894089
0!
#5911015
1!
#5922299
0!
#5933583
1!
#5939225
0!
#5944867
1!
#5956151
0!
#5967435
1!
#5978719
0!
#5990003
1!
#5995645
0!
#6029497
1!
#6035139
0!
#6046423
1!
#6052065
0!
#6074633
1!
#6080275
0!
#6085917
1!
#6091559
0!
#6102843
1!
#6108485
0!
#6114127
1!
#6125411
0!
#6136695
1!
#6142337
0!
#6147979
1!
#6153621
0!
#6159263
1!
#6164905
0!
#6193115
1!
#6198757
0!
#6204399
1!
#6210041
0!
#6215683
1!
#6221325
0!
#6226967
1!
#6232609
0!
#6243893
1!
#6249535
0!
#6260819
1!
#6266461
0!
#6272103
1!
#6277745
0!
#6283387
1!
#6311597
0!
#6317239
1!
#6322881
0!
#6328523
1!
#6334165
0!
#6345449
1!
#6356733
0!
#6373659
1!
#6379301
0!
#6384943
1!
#6390585
0!
#6396227
1!
#6401869
0!
#6430079
1!
#6435721
0!
#6441363
1!
#6447005
0!
#6452647
1!
#6463931
0!
#6475215
1!
#6480857
0!
#6486499
1!
#6492141
0!
#6497783
1!
#6503425
0!
#6520351
1!
#6525993
0!
#6531635
1!
#6537277
0!
#6542919
1!
#6548561
0!
#6554203
1!
#6559845
0!
#6565487
1!
#6593697
0!
#6599339
1!
#6604981
0!
#6610623
1!
#6616265
0!
#6627549
1!
#6638833
0!
#6655759
1!
#6661401
0!
#6667043
1!
#6672685
0!
#6689611
1!
#6700895
0!
#6712179
1!
#6717821
0!
#6723463
1!
#6729105
0!
#6734747
1!
#6740389
0!
#6768599
1!
#6774241
0!
#6779883
1!
#6785525
0!
#6791167
1!
#6802451
0!
#6813735
1!
#6819377
0!
#6825019
1!
#6830661
0!
#6836303
1!
#6841945
0!
#6864513
1!
#6870155
0!
#6881439
1!
#6887081
0!
#6892723
1!
#6898365
0!
#6904007
1!
#6932217
0!
#6937859
1!
#6943501
0!
#6949143
1!
#6954785
0!
#6966069
1!
#6971711
0!
#6994279
1!
#6999921
0!
#7005563
1!
#7011205
0!
#7016847
1!
#7039415
0!
#7050699
1!
#7056341
0!
#7061983
1!
#7067625
0!
#7073267
1!
#7095835
0!
#7107119
1!
#7112761
0!
#7118403
1!
#7124045
0!
#7140971
1!
#7146613
0!
#7152255
1!
#7157897
0!
#7163539
1!
#7169181
0!
#7174823
1!
#7180465
0!
#7186107
1!
#7191749
0!
#7203033
1!
#7208675
0!
#7214317
1!
#7219959
0!
#7231243
1!
#7236885
0!
#7242527
1!
#7248169
0!
#7253811
1!
#7265095
0!
#7287663
1!
#7293305
0!
#7304589
1!
#7310231
0!
#7315873
1!
#7321515
0!
#7344083
1!
#7349725
0!
#7355367
1!
#7366651
0!
#7383577
1!
#7394861
0!
#7400503
1!
#7406145
0!
#7411787
1!
#7434355
0!
#7439997
1!
#7451281
0!
#7456923
1!
#7462565
0!
#7473849
1!
#7490775
0!
#7496417
1!
#7507701
0!
#7513343
1!
#7518985
0!
#7530269
1!
#7541553
0!
#7552837
1!
#7564121
0!
#7569763
1!
#7575405
0!
#7581047
1!
#7586689
0!
#7597973
1!
#7603615
0!
#7609257
1!
#7620541
0!
#7626183
1!
#7631825
0!
#7637467
1!
#7654393
0!
#7665677
1!
#7676961
0!
#7682603
1!
#7688245
0!
#7693887
1!
#7705171
0!
#7716455
1!
#7733381
0!
#7739023
1!
#7744665
0!
#7750307
1!
#7755949
0!
#7767233
1!
#7772875
0!
#7778517
1!
#7789801
0!
#7795443
1!
#7801085
0!
#7829295
1!
#7846221
0!
#7851863
1!
#7857505
0!
#7868789
1!
#7874431
0!
#7880073
1!
#7896999
0!
#7908283
1!
#7913925
0!
#7947777
1!
#7953419
0!
#7964703
1!
#7970345
0!
#7998555
1!
#8009839
0!
#8021123
1!
#8026765
0!
#8043691
1!
#8054975
0!
#8060617
1!
#8066259
0!
#8077543
1!
#8083185
0!
#8117037
1!
#8122679
0!
#8133963
1!
#8139605
0!
#8145247
1!
#8156531
0!
#8167815
1!
#8173457
0!
#8179099
1!
#8184741
0!
#8190383
1!
#8196025
0!
#8224235
1!
#8229877
0!
#8235519
1!
#8241161
0!
#8246803
1!
#8252445
0!
#8258087
1!
#8263729
0!
#8275013
1!
#8280655
0!
#8291939
1!
#8297581
0!
#8303223
1!
#8308865
0!
#8314507
1!
#8331433
0!
#8337075
1!
#8342717
0!
#8348359
1!
#8354001
0!
#8359643
1!
#8365285
0!
#8393495
1!
#8399137
0!
#8404779
1!
#8410421
0!
#8416063
1!
#8421705
0!
#8432989
1!
#8438631
0!
#8444273
1!
#8461199
0!
#8472483
1!
#8478125
0!
#8506335
1!
#8517619
0!
#8528903
1!
#8534545
0!
#8557113
1!
#8579681
0!
#8585323
1!
#8590965
0!
#8596607
1!
#8602249
0!
#8607891
1!
#8613533
0!
#8624817
1!
#8636101
0!
#8641743
1!
#8647385
0!
#8653027
1!
#8658669
0!
#8664311
1!
#8669953
0!
#8681237
1!
#8692521
0!
#8698163
1!
#8703805
0!
#8709447
1!
#8715089
0!
#8720731
1!
#8732015
0!
#8754583
1!
#8760225
0!
#8771509
1!
#8777151
0!
#8782793
1!
#8788435
0!
#8811003
1!
#8816645
0!
#8822287
1!
#8833571
0!
#8850497
1!
#8861781
0!
#8867423
1!
#8873065
0!
#8889991
1!
#8901275
0!
#8906917
1!
#8918201
0!
#8923843
1!
#8929485
0!
#8935127
1!
#8946411
0!
#8952053
1!
#8957695
0!
#8963337
1!
#8974621
0!
#8980263
1!
#8985905
0!
#8991547
1!
#9019757
0!
#9025399
1!
#9031041
0!
#9036683
1!
#9042325
0!
#9059251
1!
#9064893
0!
#9076177
1!
#9087461
0!
#9093103
1!
#9098745
0!
#9110029
1!
#9115671
0!
#9126955
1!
#9143881
0!
#9149523
1!
#9155165
0!
#9166449
1!
#9177733
0!
#9183375
1!
#9200301
0!
#9205943
1!
#9211585
0!
#9222869
1!
#9228511
0!
#9234153
1!
#9251079
0!
#9262363
1!
#9268005
0!
#9296215
1!
#9307499
0!
#9318783
1!
#9324425
0!
#9346993
1!
#9369561
0!
#9375203
1!
#9380845
0!
#9409055
1!
#9420339
0!
#9431623
1!
#9437265
0!
#9465475
1!
#9476759
0!
#9488043
1!
#9493685
0!
#9510611
1!
#9521895
0!
#9527537
1!
#9533179
0!
#9544463
1!
#9550105
0!
#9555747
1!
#9561389
0!
#9578315
1!
#9595241
0!
#9600883
1!
#9606525
0!
#9612167
1!
#9640377
0!
#9646019
1!
#9651661
0!
#9657303
1!
#9662945
0!
#9679871
1!
#9685513
0!
#9696797
1!
#9708081
0!
#9713723
1!
#9719365
0!
#9730649
1!
#9736291
0!
#9747575
1!
#9764501
0!
#9770143
1!
#9775785
0!
#9787069
1!
#9798353
0!
#9803995
1!
#9820921
0!
#9826563
1!
#9832205
0!
#9843489
1!
#9849131
0!
#9854773
1!
#9871699
0!
#9882983
1!
#9888625
0!
#9916835
1!
#9928119
0!
#9939403
1!
#9945045
0!
#9967613
1!
#9990181
0!
#9995823
1!
#10001465
0!
#10029675
1!
#10040959
0!
#10052243
1!
#10057885
0!
#10086095
1!
#10097379
0!
#10108663
1!
#10114305
0!
#10131231
1!
#10142515
0!
#10148157
1!
#10153799
0!
#10165083
1!
#10170725
0!
#10187651
1!
#10193293
0!
#10204577
1!
#10215861
0!
#10221503
1!
#10227145
0!
#10232787
1!
#10260997
0!
#10266639
1!
#10272281
0!
#10277923
1!
#10283565
0!
#10300491
1!
#10306133
0!
#10317417
1!
#10328701
0!
#10334343
1!
#10339985
0!
#10351269
1!
#10356911
0!
#10368195
1!
#10385121
0!
#10390763
1!
#10396405
0!
#10407689
1!
#10418973
0!
#10424615
1!
#10441541
0!
#10447183
1!
#10452825
0!
#10464109
1!
#10469751
0!
#10475393
1!
#10492319
0!
#10503603
1!
#10509245
0!
#10537455
1!
#10548739
0!
#10560023
1!
#10565665
0!
#10588233
1!
#10610801
0!
#10616443
1!
#10622085
0!
#10650295
1!
#10661579
0!
#10672863
1!
#10678505
0!
#10706715
1!
#10717999
0!
#10729283
1!
#10734925
0!
#10751851
1!
#10763135
0!
#10768777
1!
#10774419
0!
#10785703
1!
#10791345
0!
#10796987
1!
#10808271
0!
#10825197
1!
#10836481
0!
#10842123
1!
#10847765
0!
#10853407
1!
#10864691
0!
#10875975
1!
#10892901
0!
#10898543
1!
#10904185
0!
#10932395
1!
#10943679
0!
#10954963
1!
#10960605
0!
#10966247
1!
#10994457
0!
#11000099
1!
#11005741
0!
#11011383
1!
#11017025
0!
#11033951
1!
#11039593
0!
#11050877
1!
#11062161
0!
#11067803
1!
#11073445
0!
#11084729
1!
#11090371
0!
#11101655
1!
#11118581
0!
#11124223
1!
#11129865
0!
#11141149
1!
#11152433
0!
#11158075
1!
#11175001
0!
#11180643
1!
#11186285
0!
#11197569
1!
#11203211
0!
#11208853
1!
#11225779
0!
#11237063
1!
#11242705
0!
#11270915
1!
#11282199
0!
#11293483
1!
#11299125
0!
#11321693
1!
#11344261
0!
#11349903
1!
#11355545
0!
#11383755
1!
#11395039
0!
#11406323
1!
#11411965
0!
#11440175
1!
#11451459
0!
#11462743
1!
#11468385
0!
#11485311
1!
#11496595
0!
#11502237
1!
#11507879
0!
#11519163
1!
#11524805
0!
#11547373
1!
#11553015
0!
#11558657
1!
#11569941
0!
#11575583
1!
#11581225
0!
#11598151
1!
#11603793
0!
#11615077
1!
#11626361
0!
#11632003
1!
#11637645
0!
#11643287
1!
#11671497
0!
#11677139
1!
#11682781
0!
#11688423
1!
#11694065
0!
#11710991
1!
#11716633
0!
#11727917
1!
#11739201
0!
#11744843
1!
#11750485
0!
#11761769
1!
#11767411
0!
#11778695
1!
#11795621
0!
#11801263
1!
#11806905
0!
#11818189
1!
#11829473
0!
#11835115
1!
#11852041
0!
#11857683
1!
#11863325
0!
#11874609
1!
#11880251
0!
#11885893
1!
#11902819
0!
#11914103
1!
#11919745
0!
#11947955
1!
#11959239
0!
#11970523
1!
#11976165
0!
#11998733
1!
#12021301
0!
#12026943
1!
#12032585
0!
#12060795
1!
#12072079
0!
#12083363
1!
#12089005
0!
#12117215
1!
#12128499
0!
#12139783
1!
#12145425
0!
#12162351
1!
#12173635
0!
#12179277
1!
#12184919
0!
#12196203
1!
#12201845
0!
#12207487
1!
#12224413
0!
#12230055
1!
#12246981
0!
#12252623
1!
#12258265
0!
#12286475
1!
#12303401
0!
#12309043
1!
#12314685
0!
#12320327
1!
#12348537
0!
#12354179
1!
#12359821
0!
#12365463
1!
#12371105
0!
#12388031
1!
#12393673
0!
#12404957
1!
#12416241
0!
#12421883
1!
#12427525
0!
#12438809
1!
#12444451
0!
#12455735
1!
#12472661
0!
#12478303
1!
#12483945
0!
#12495229
1!
#12506513
0!
#12512155
1!
#12529081
0!
#12534723
1!
#12540365
0!
#12551649
1!
#12557291
0!
#12562933
1!
#12579859
0!
#12591143
1!
#12596785
0!
#12624995
1!
#12636279
0!
#12647563
1!
#12653205
0!
#12675773
1!
#12698341
0!
#12703983
1!
#12709625
0!
#12737835
1!
#12749119
0!
#12760403
1!
#12766045
0!
#12794255
1!
#12805539
0!
#12816823
1!
#12822465
0!
#12828107
1!
#12833749
0!
#12839391
1!
#12850675
0!
#12873243
1!
#12878885
0!
#12890169
1!
#12895811
0!
#12901453
1!
#12907095
0!
#12929663
1!
#12935305
0!
#12940947
1!
#12946589
0!
#12952231
1!
#12963515
0!
#12969157
1!
#12980441
0!
#12986083
1!
#12991725
0!
#12997367
1!
#13019935
0!
#13025577
1!
#13036861
0!
#13042503
1!
#13048145
0!
#13065071
1!
#13070713
0!
#13081997
1!
#13093281
0!
#13098923
1!
#13104565
0!
#13110207
1!
#13115849
0!
#13121491
1!
#13127133
0!
#13138417
1!
#13149701
0!
#13155343
1!
#13160985
0!
#13172269
1!
#13177911
0!
#13183553
1!
#13200479
0!
#13211763
1!
#13217405
0!
#13234331
1!
#13239973
0!
#13256899
1!
#13262541
0!
#13268183
1!
#13273825
0!
#13279467
1!
#13285109
0!
#13296393
1!
#13302035
0!
#13313319
1!
#13318961
0!
#13324603
1!
#13330245
0!
#13335887
1!
#13358455
0!
#13369739
1!
#13375381
0!
#13381023
1!
#13386665
0!
#13403591
1!
#13414875
0!
#13420517
1!
#13426159
0!
#13437443
1!
#13443085
0!
#13476937
1!
#13482579
0!
#13493863
1!
#13499505
0!
#13505147
1!
#13516431
0!
#13533357
1!
#13544641
0!
#13550283
1!
#13555925
0!
#13572851
1!
#13584135
0!
#13589777
1!
#13601061
0!
#13606703
1!
#13612345
0!
#13617987
1!
#13640555
0!
#13646197
1!
#13657481
0!
#13663123
1!
#13668765
0!
#13674407
1!
#13685691
0!
#13702617
1!
#13713901
0!
#13719543
1!
#13725185
0!
#13730827
1!
#13742111
0!
#13747753
1!
#13753395
0!
#13759037
1!
#13770321
0!
#13775963
1!
#13781605
0!
#13815457
1!
#13821099
0!
#13832383
1!
#13838025
0!
#13854951
1!
#13860593
0!
#13871877
1!
#13883161
0!
#13888803
1!
#13894445
0!
#13900087
1!
#13905729
0!
#13917013
1!
#13922655
0!
#13928297
1!
#13939581
0!
#13945223
1!
#13950865
0!
#13962149
1!
#13973433
0!
#13979075
1!
#13996001
0!
#14001643
1!
#14007285
0!
#14018569
1!
#14024211
0!
#14029853
1!
#14046779
0!
#14058063
1!
#14063705
0!
#14074989
1!
#14080631
0!
#14091915
1!
#14103199
0!
#14114483
1!
#14120125
0!
#14125767
1!
#14131409
0!
#14137051
1!
#14148335
0!
#14170903
1!
#14176545
0!
#14187829
1!
#14193471
0!
#14199113
1!
#14204755
0!
#14227323
1!
#14232965
0!
#14249891
1!
#14261175
0!
#14266817
1!
#14278101
0!
#14283743
1!
#14289385
0!
#14295027
1!
#14317595
0!
#14323237
1!
#14334521
0!
#14340163
1!
#14345805
0!
#14351447
1!
#14357089
0!
#14379657
1!
#14390941
0!
#14396583
1!
#14402225
0!
#14419151
1!
#14424793
0!
#14436077
1!
#14447361
0!
#14453003
1!
#14458645
0!
#14469929
1!
#14475571
0!
#14481213
1!
#14498139
0!
#14509423
1!
#14515065
0!
#14543275
1!
#14554559
0!
#14565843
1!
#14571485
0!
#14594053
1!
#14616621
0!
#14622263
1!
#14627905
0!
#14633547
1!
#14644831
0!
#14656115
1!
#14667399
0!
#14678683
1!
#14684325
0!
#14695609
1!
#14706893
0!
#14718177
1!
#14729461
0!
#14735103
1!
#14740745
0!
#14752029
1!
#14763313
0!
#14774597
1!
#14785881
0!
#14791523
1!
#14797165
0!
#14808449
1!
#14819733
0!
#14831017
1!
#14842301
0!
#14847943
1!
#14853585
0!
#14881795
1!
#14893079
0!
#14904363
1!
#14910005
0!
#14938215
1!
#14949499
0!
#14960783
1!
#14966425
0!
#14972067
1!
#14983351
0!
#14994635
1!
#15005919
0!
#15017203
1!
#15022845
0!
#15051055
1!
#15062339
0!
#15073623
1!
#15079265
0!
#15096191
1!
#15107475
0!
#15113117
1!
#15118759
0!
#15130043
1!
#15135685
0!
#15152611
1!
#15163895
0!
#15169537
1!
#15180821
0!
#15186463
1!
#15192105
0!
#15197747
1!
#15203389
0!
#15209031
1!
#15214673
0!
#15225957
1!
#15237241
0!
#15242883
1!
#15248525
0!
#15259809
1!
#15276735
0!
#15282377
1!
#15293661
0!
#15299303
1!
#15304945
0!
#15316229
1!
#15321871
0!
#15327513
1!
#15344439
0!
#15355723
1!
#15361365
0!
#15367007
1!
#15372649
0!
#15389575
1!
#15400859
0!
#15412143
1!
#15417785
0!
#15423427
1!
#15429069
0!
#15445995
1!
#15457279
0!
#15468563
1!
#15474205
0!
#15479847
1!
#15485489
0!
#15491131
1!
#15496773
0!
#15502415
1!
#15513699
0!
#15524983
1!
#15530625
0!
#15541909
1!
#15553193
0!
#15558835
1!
#15570119
0!
#15581403
1!
#15587045
0!
#15592687
1!
#15598329
0!
#15603971
1!
#15615255
0!
#15637823
1!
#15643465
0!
#15654749
1!
#15660391
0!
#15666033
1!
#15671675
0!
#15694243
1!
#15699885
0!
#15716811
1!
#15728095
0!
#15733737
1!
#15745021
0!
#15750663
1!
#15756305
0!
#15761947
1!
#15784515
0!
#15790157
1!
#15801441
0!
#15807083
1!
#15812725
0!
#15818367
1!
#15824009
0!
#15846577
1!
#15857861
0!
#15863503
1!
#15869145
0!
#15886071
1!
#15891713
0!
#15902997
1!
#15914281
0!
#15919923
1!
#15925565
0!
#15936849
1!
#15942491
0!
#15948133
1!
#15965059
0!
#15976343
1!
#15981985
0!
#16010195
1!
#16021479
0!
#16032763
1!
#16038405
0!
#16060973
1!
#16083541
0!
#16089183
1!
#16094825
0!
#16111751
1!
#16117393
0!
#16123035
1!
#16134319
0!
#16145603
1!
#16151245
0!
#16179455
1!
#16190739
0!
#16202023
1!
#16207665
0!
#16235875
1!
#16247159
0!
#16258443
1!
#16264085
0!
#16269727
1!
#16286653
0!
#16292295
1!
#16303579
0!
#16314863
1!
#16320505
0!
#16343073
1!
#16359999
0!
#16371283
1!
#16376925
0!
#16405135
1!
#16416419
0!
#16427703
1!
#16433345
0!
#16461555
1!
#16472839
0!
#16484123
1!
#16489765
0!
#16517975
1!
#16529259
0!
#16540543
1!
#16546185
0!
#16563111
1!
#16574395
0!
#16580037
1!
#16585679
0!
#16596963
1!
#16602605
0!
#16619531
1!
#16630815
0!
#16636457
1!
#16647741
0!
#16653383
1!
#16659025
0!
#16664667
1!
#16670309
0!
#16675951
1!
#16681593
0!
#16692877
1!
#16704161
0!
#16709803
1!
#16715445
0!
#16726729
1!
#16743655
0!
#16749297
1!
#16760581
0!
#16766223
1!
#16771865
0!
#16783149
1!
#16788791
0!
#16794433
1!
#16811359
0!
#16822643
1!
#16828285
0!
#16833927
1!
#16839569
0!
#16856495
1!
#16867779
0!
#16879063
1!
#16884705
0!
#16890347
1!
#16895989
0!
#16912915
1!
#16924199
0!
#16935483
1!
#16941125
0!
#16958051
1!
#16963693
0!
#16969335
1!
#16980619
0!
#16991903
1!
#16997545
0!
#17003187
1!
#17008829
0!
#17014471
1!
#17020113
0!
#17025755
1!
#17037039
0!
#17048323
1!
#17053965
0!
#17065249
1!
#17076533
0!
#17082175
1!
#17093459
0!
#17104743
1!
#17110385
0!
#17116027
1!
#17121669
0!
#17127311
1!
#17138595
0!
#17161163
1!
#17166805
0!
#17178089
1!
#17183731
0!
#17189373
1!
#17195015
0!
#17217583
1!
#17223225
0!
#17245793
1!
#17251435
0!
#17257077
1!
#17268361
0!
#17274003
1!
#17279645
0!
#17285287
1!
#17307855
0!
#17313497
1!
#17324781
0!
#17330423
1!
#17336065
0!
#17369917
1!
#17375559
0!
#17386843
1!
#17392485
0!
#17420695
1!
#17431979
0!
#17443263
1!
#17448905
0!
#17482757
1!
#17488399
0!
#17499683
1!
#17505325
0!
#17522251
1!
#17527893
0!
#17533535
1!
#17550461
0!
#17556103
1!
#17561745
0!
#17567387
1!
#17573029
0!
#17595597
1!
#17606881
0!
#17612523
1!
#17618165
0!
#17623807
1!
#17629449
0!
#17640733
1!
#17646375
0!
#17652017
1!
#17663301
0!
#17668943
1!
#17674585
0!
#17691511
1!
#17702795
0!
#17708437
1!
#17719721
0!
#17725363
1!
#17731005
0!
#17764857
1!
#17770499
0!
#17781783
1!
#17787425
0!
#17793067
1!
#17798709
0!
#17815635
1!
#17826919
0!
#17838203
1!
#17843845
0!
#17855129
1!
#17860771
0!
#17872055
1!
#17883339
0!
#17894623
1!
#17900265
0!
#17934117
1!
#17939759
0!
#17951043
1!
#17956685
0!
#17967969
1!
#17973611
0!
#17984895
1!
#18001821
0!
#18007463
1!
#18013105
0!
#18018747
1!
#18041315
0!
#18046957
1!
#18058241
0!
#18063883
1!
#18069525
0!
#18075167
1!
#18097735
0!
#18103377
1!
#18114661
0!
#18120303
1!
#18125945
0!
#18131587
1!
#18137229
0!
#18142871
1!
#18154155
0!
#18159797
1!
#18171081
0!
#18176723
1!
#18182365
0!
#18216217
1!
#18221859
0!
#18233143
1!
#18238785
0!
#18255711
1!
#18261353
0!
#18266995
1!
#18278279
0!
#18289563
1!
#18295205
0!
#18300847
1!
#18306489
0!
#18312131
1!
#18323415
0!
#18345983
1!
#18351625
0!
#18362909
1!
#18368551
0!
#18374193
1!
#18379835
0!
#18402403
1!
#18408045
0!
#18424971
1!
#18436255
0!
#18441897
1!
#18453181
0!
#18458823
1!
#18464465
0!
#18470107
1!
#18492675
0!
#18498317
1!
#18509601
0!
#18515243
1!
#18520885
0!
#18526527
1!
#18532169
0!
#18554737
1!
#18566021
0!
#18571663
1!
#18577305
0!
#18594231
1!
#18599873
0!
#18611157
1!
#18622441
0!
#18628083
1!
#18633725
0!
#18645009
1!
#18650651
0!
#18656293
1!
#18673219
0!
#18684503
1!
#18690145
0!
#18718355
1!
#18729639
0!
#18740923
1!
#18746565
0!
#18769133
1!
#18791701
0!
#18797343
1!
#18802985
0!
#18819911
1!
#18825553
0!
#18831195
1!
#18842479
0!
#18853763
1!
#18859405
0!
#18887615
1!
#18898899
0!
#18910183
1!
#18915825
0!
#18944035
1!
#18955319
0!
#18966603
1!
#18972245
0!
#18994813
1!
#19011739
0!
#19023023
1!
#19028665
0!
#19056875
1!
#19068159
0!
#19079443
1!
#19085085
0!
#19102011
1!
#19107653
0!
#19113295
1!
#19124579
0!
#19135863
1!
#19141505
0!
#19169715
1!
#19180999
0!
#19192283
1!
#19197925
0!
#19226135
1!
#19237419
0!
#19248703
1!
#19254345
0!
#19271271
1!
#19282555
0!
#19288197
1!
#19293839
0!
#19305123
1!
#19310765
0!
#19327691
1!
#19338975
0!
#19344617
1!
#19355901
0!
#19361543
1!
#19367185
0!
#19372827
1!
#19378469
0!
#19384111
1!
#19389753
0!
#19401037
1!
#19412321
0!
#19417963
1!
#19423605
0!
#19434889
1!
#19451815
0!
#19457457
1!
#19468741
0!
#19474383
1!
#19480025
0!
#19491309
1!
#19496951
0!
#19502593
1!
#19519519
0!
#19530803
1!
#19536445
0!
#19547729
1!
#19553371
0!
#19564655
1!
#19575939
0!
#19587223
1!
#19592865
0!
#19598507
1!
#19604149
0!
#19615433
1!
#19632359
0!
#19643643
1!
#19649285
0!
#19654927
1!
#19671853
0!
#19677495
1!
#19688779
0!
#19700063
1!
#19705705
0!
#19716989
1!
#19722631
0!
#19733915
1!
#19745199
0!
#19756483
1!
#19762125
0!
#19767767
1!
#19773409
0!
#19779051
1!
#19790335
0!
#19812903
1!
#19818545
0!
#19829829
1!
#19835471
0!
#19841113
1!
#19846755
0!
#19869323
1!
#19874965
0!
#19880607
1!
#19886249
0!
#19891891
1!
#19897533
0!
#19908817
1!
#19920101
0!
#19925743
1!
#19931385
0!
#19942669
1!
#19959595
0!
#19965237
1!
#19976521
0!
#19982163
1!
#19987805
0!
#20004731
1!
#20010373
0!
#20016015
1!
#20032941
0!
#20038583
1!
#20044225
0!
#20055509
1!
#20061151
0!
#20072435
1!
#20089361
0!
#20095003
1!
#20100645
0!
#20106287
1!
#20111929
0!
#20123213
1!
#20145781
0!
#20151423
1!
#20157065
0!
#20190917
1!
#20196559
0!
#20207843
1!
#20213485
0!
#20241695
1!
#20252979
0!
#20264263
1!
#20269905
0!
#20292473
1!
#20315041
0!
#20320683
1!
#20326325
0!
#20343251
1!
#20348893
0!
#20354535
1!
#20365819
0!
#20377103
1!
#20382745
0!
#20410955
1!
#20422239
0!
#20433523
1!
#20439165
0!
#20467375
1!
#20478659
0!
#20489943
1!
#20495585
0!
#20518153
1!
#20535079
0!
#20546363
1!
#20552005
0!
#20580215
1!
#20591499
0!
#20602783
1!
#20608425
0!
#20614067
1!
#20619709
0!
#20625351
1!
#20630993
0!
#20636635
1!
#20647919
0!
#20659203
1!
#20664845
0!
#20681771
1!
#20687413
0!
#20698697
1!
#20709981
0!
#20715623
1!
#20721265
0!
